{
  "applications": "*",
  "changelogDate": "20220415124443",
  "dto": "mapstruct",
  "embedded": false,
  "entityTableName": "payment",
  "fields": [
    {
      "fieldName": "idPayment",
      "fieldType": "Long"
    },
    {
      "fieldName": "idOrder",
      "fieldType": "Long"
    },
    {
      "fieldName": "paymentMethod",
      "fieldType": "PaymentMethod",
      "fieldValidateRules": ["required"],
      "fieldValues": "CB,BITCOIN,PAYPAL,NFT"
    }
  ],
  "fluentMethods": true,
  "jpaMetamodelFiltering": false,
  "name": "Payment",
  "pagination": "no",
  "readOnly": false,
  "relationships": [
    {
      "otherEntityName": "order",
      "otherEntityRelationshipName": "payment",
      "ownerSide": true,
      "relationshipName": "order",
      "relationshipType": "one-to-one"
    }
  ],
  "service": "serviceClass"
}
